[
    {
        "icon":"home",
        "name":"Menú principal",
        "redirectTo":"/menu"
    },
    {
        "icon":"wallet",
        "name":"Mi billetera",
        "redirectTo":"/wallet"
    },
    {
        "icon":"settings",
        "name":"Configuración",
        "redirectTo":"/configuration"
    },
    {
        "icon":"help-circle",
        "name":"Ayuda",
        "redirectTo":"/"
    }
]